{
  "input_root": "/inputs",
  "output_root": "/output",
  "timeout": 10,
  "cpus"  : "2",
  "ram"   : "56Gi",
  "cr_backend": "GAMA",
  "metric": "accuracy",
  "task_type": "classification",
  "optimizer_args": {
    "verbosity": 2,
    "n_jobs": 5
  }
}